…
    ## The following objects are masked from 'package:stats':
    ## 
    ##     filter, lag

    ## The following objects are masked from 'package:base':
    ## 
    ##     intersect, setdiff, setequal, union

``` r
accident<-group_by(accidentP,district)
summarise(accident,nlocation=n())%>%
arrange(desc(nlocation))
```

    ## # A tibble: 27 × 2
    ##    district nlocation
    ##       <chr>     <int>
    ## 1    中和區        11
    ## 2    板橋區        10
    ## 3    土城區         8
    ## 4    五股區         8
    ## 5    三峽區         7
    ## 6    汐止區         6
    ## 7    泰山區         6
    ## 8    新莊區         6
    ## 9    樹林區         6
    ## 10   八里區         5
    ## # ... with 17 more rows

``` r
photo<-group_by(photoP,district)
summarise(photo,nlocation=n())%>%
arrange(desc(nlocation))
```

    ## # A tibble: 27 × 2
    ##    district nlocation
    ##       <chr>     <int>
    ## 1    八里區        20
    ## 2    新店區        19
    ## 3    淡水區        18
    ## 4    林口區        16
    ## 5    板橋區        15
    ## 6    土城區        13
    ## 7    三峽區        12
    ## 8    新莊區        12
    ## 9    瑞芳區        12
    ## 10   三重區        11
    ## # ... with 17 more rows
…
